@startuml storeProductSequence
title StoreProduct

actor User
boundary ProductRestGateway as RestGtw
control UseCaseFacade as UCFacade
control AddUseCase as AddUC
boundary ProductRepository as ProductRepo
database DB
boundary EventSender as InfGtw

User -> RestGtw : POST Product <<JSON>>
RestGtw -> UCFacade : getAddUseCase
UCFacade -> RestGtw
RestGtw -> AddUC : add(Product)
AddUC -> ProductRepo : save(Product)
||20||
' UPSERT ?
ProductRepo -> DB : readProduct
DB -> ProductRepo
ProductRepo -> ProductRepo : updateProductsData
ProductRepo -> DB : updateProduct
DB -> ProductRepo
||20||
ProductRepo -> AddUC : {updatedProduct}
AddUC -->  InfGtw : EVENT ProductUpdated(Product)
AddUC -> RestGtw : {updatedProduct}
RestGtw -> User : updatedProduct <<JSON>>

@enduml